aes_16.vcd
$date
	Thu Mar 17 16:09:24 2016
$end

$version
	Synopsys VCS version H-2013.06-3_Full64
$end

$timescale
	1ps
$end

$comment Csum: 1 a4e3060b2986d041 $end


$scope module test_aes_16 $end
$var reg 1 ! clk $end
$var reg 16 " state [15:0] $end
$var reg 16 # key [15:0] $end
$var wire 1 $ out [15] $end
$var wire 1 % out [14] $end
$var wire 1 & out [13] $end
$var wire 1 ' out [12] $end
$var wire 1 ( out [11] $end
$var wire 1 ) out [10] $end
$var wire 1 * out [9] $end
$var wire 1 + out [8] $end
$var wire 1 , out [7] $end
$var wire 1 - out [6] $end
$var wire 1 . out [5] $end
$var wire 1 / out [4] $end
$var wire 1 0 out [3] $end
$var wire 1 1 out [2] $end
$var wire 1 2 out [1] $end
$var wire 1 3 out [0] $end

$scope module uut $end
$var wire 1 ! clk $end
$var wire 16 " state [15:0] $end
$var wire 16 # key [15:0] $end
$var reg 16 4 out [15:0] $end
$var reg 4 5 p00 [3:0] $end
$var reg 4 6 p01 [3:0] $end
$var reg 4 7 p10 [3:0] $end
$var reg 4 8 p11 [3:0] $end
$var reg 4 9 y00 [3:0] $end
$var reg 4 : y01 [3:0] $end
$var reg 4 ; y10 [3:0] $end
$var reg 4 < y11 [3:0] $end
$var reg 8 = k0 [7:0] $end
$var reg 8 > k1 [7:0] $end
$var reg 8 ? k1x [7:0] $end
$var reg 8 @ k0_o [7:0] $end
$var reg 8 A k1_o [7:0] $end
$var wire 8 B k0_i [7:0] $end
$var wire 8 C k1_i [7:0] $end
$var wire 8 D v0 [7:0] $end
$var wire 8 E v1 [7:0] $end
$var wire 8 F s0 [7:0] $end
$var wire 8 G s1 [7:0] $end
$var wire 8 H z0 [7:0] $end
$var wire 8 I z1 [7:0] $end
$var wire 8 J g0 [7:0] $end
$var wire 8 K g1 [7:0] $end
$upscope $end

$upscope $end

$enddefinitions $end

#0
$dumpvars
0!
x3
x)
x(
x'
x&
x%
x$
x2
x1
x0
x/
x.
x-
x,
x+
x*
b11011000 J
b11011000 K
b00000000 =
b00000000 B
b00100011 @
b00000000 >
b00000000 C
b00100011 A
b01100011 ?
b0000000000000000 #
bxxxxxxxxxxxxxxxx 4
b0110 5
b0011 6
b0110 7
b0011 8
b00000000 F
b00000000 G
b0000000000000000 "
b01000000 D
b01000000 E
b1111 9
b1011 :
b1111 ;
b1011 <
b01100011 H
b01100011 I
$end
#10000
1!
b1101100011011000 4
1$
1%
0&
1'
1(
0)
0*
0+
1,
1-
0.
1/
10
01
02
03
#20000
0!
#30000
1!
#40000
0!
#50000
1!
#60000
0!
#70000
1!
#80000
0!
#90000
1!
#100000
0!
#102500
b0000011100110100 "
b00001000 G
b01001000 F
b0100111100111100 #
b01001111 B
b00001111 D
b00111100 C
b00110011 E
b01001111 =
b00111100 >
b0101 5
b0010 6
b0011 7
b0000 8
b11101011 ?
b00011111 H
b00001110 I
b11100100 @
b11011000 A
b1100 9
b0000 :
b1010 ;
b00101111 J
b01111000 K
#110000
1!
b0010111101111000 4
0$
0%
1&
0'
1)
1*
1+
0,
1.
#120000
0!
#130000
1!
#140000
0!
#150000
1!
#160000
0!
#170000
1!
#180000
0!
#190000
1!
#200000
0!
#202500
b1100110011011101 "
b11010000 G
b11000000 F
b0000110000001101 #
b00001100 B
b01001100 D
b00001101 C
b01000001 E
b00001100 =
b00001101 >
b1011 5
b1010 6
b0111 7
b11010111 ?
b10111100 H
b01110111 I
b10011011 @
b10010110 A
b0110 9
b0101 :
b1111 ;
b0101 <
b11111110 J
b01100011 K
#210000
1!
b1111111001100011 4
1$
1%
1'
0+
0/
00
12
13
#220000
0!
#230000
1!
#240000
0!
#250000
1!
#260000
0!
#270000
1!
#280000
0!
#290000
1!
#300000
0!
#302500
b0000000000000000 "
b00000000 G
b00000000 F
b0000000000000000 #
b00000000 B
b01000000 D
b00000000 C
b01000000 E
b00000000 =
b00000000 >
b0110 5
b0011 6
b0110 7
b0011 8
b01100011 ?
b01100011 H
b01100011 I
b00100011 @
b00100011 A
b1111 9
b1011 :
b1011 <
b11011000 J
b11011000 K
#310000
1!
b1101100011011000 4
0&
0)
0*
1,
0.
1/
10
02
03
#320000
0!
#330000
1!
#340000
0!
#350000
1!
#360000
0!
#370000
1!
#380000
0!
#390000
1!
#400000
0!
#402500
b0000000000000001 #
b00000001 C
b00000001 G
b01000001 E
b00000001 >
b0111 7
b1100 8
b01111100 ?
b01110010 I
b01101100 H
b00111100 @
b00111101 A
b0101 9
b0000 :
b0100 ;
b0000 <
b01101100 J
b01111101 K
#410000
1!
b0110110001111101 4
0$
1&
0'
1)
0,
1.
11
13
#420000
0!
#430000
1!
#440000
0!
#450000
1!
#460000
0!
#470000
1!
#480000
0!
#490000
1!
#500000
0!
#502500
b0000000000000001 "
b0000000000000000 #
b00000000 C
